﻿Field=#~Integer~#~50|Field=Comment~String~Comment~100|Field=Description~String~Description~100|Field=Designator~String~Designator~100|Field=Footprint~String~Footprint~100|Field=LibRef~String~LibRef~100|Field=Quantity~Integer~Quantity~100|ReportField=Currency~<none>|ReportField=ProductionQuantity~1|ReportField=ProjectFileName~mcoi_xu5_mod.PrjPcb|ReportField=ProjectFullPath~C:\Users\ppacner\CERN\mcoi_xu5_mod\pcb_design\mcoi_xu5_mod\mcoi_xu5_mod.PrjPcb|ReportField=Title~Bill of Materials For Project [mcoi_xu5_mod.PrjPcb] (No PCB Document Selected)|ReportField=ReportTime~11:10:15|ReportField=ReportDate~26/02/2020|ReportField=ReportDateTime~26/02/2020 11:10:15|ReportField=OutputName~Bill of Materials|ReportField=OutputType~BOM_PartType|ReportField=GeneratorName~BOM|ReportField=GeneratorDescription~Bill of Materials|ReportField=VariantName~None|ReportField=TotalQuantity~840|ReportField=TotalActualPrice~0|ReportField=TotalTargetPrice~0|ReportField=VersionControl_RevNumber~|ReportField=VersionControl_ProjFolderRevNumber~e51696c85a6048d80e72d35cfc15869ded376ca8|ReportField=Address1~European Organization for Nuclear Research|ReportField=Address2~CH-1211 Genève 23 - Switzerland|ReportField=Address3~|ReportField=Address4~|ReportField=Application_BuildNumber~|ReportField=ApprovedBy~|ReportField=Author~|ReportField=CheckedBy~|ReportField=CheckedDate~|ReportField=CompanyName~CERN|ReportField=ConfigurationParameters~|ReportField=ConfiguratorName~|ReportField=CreateDate~|ReportField=CurrentDate~26/02/2020|ReportField=CurrentTime~11:07:39|ReportField=Date~|ReportField=Designer~D. Belohrad|ReportField=DivGrp~BI-PM|ReportField=DocumentFullPathAndName~C:\Users\ppacner\CERN\mcoi_xu5_mod\pcb_design\mcoi_xu5_mod\Schematics\mcoid_xu5.SchDoc|ReportField=DocumentName~mcoid_xu5.SchDoc|ReportField=DocumentNumber~|ReportField=DrawnBy~D. Belohrad|ReportField=EDA_Number~EDA-XXXXX-VX-X|ReportField=Engineer~|ReportField=ImagePath~|ReportField=IsUserConfigurable~|ReportField=ModifiedBy~|ReportField=ModifiedDate~26/02/2020|ReportField=Organization~CERN|ReportField=ProjectName~mcoi_xu5_mod.PrjPcb|ReportField=Projet~Motor Control Optical Interface|ReportField=Revision~-|ReportField=Rule~|ReportField=SheetNumber~|ReportField=SheetTotal~|ReportField=Time~|ReportField=Title~MCOID|ReportField=Title2~Common part|ReportField=VersionControl_RevNumber~|ReportField=DataSourceFileName~mcoi_xu5_mod.PrjPcb|ReportField=DataSourceFullPath~C:\Users\ppacner\CERN\mcoi_xu5_mod\pcb_design\mcoi_xu5_mod\mcoi_xu5_mod.PrjPcb|ReportField=PCBConfigurationName~Sources|ReportField=Item~|ReportField=ItemRevision~|ReportField=ItemAndRevision~|ReportField=ItemRevisionBase~|ReportField=ItemRevisionLevel1~|ReportField=ItemRevisionLevel2~|ReportField=ItemRevisionLevel1AndBase~|ReportField=ItemRevisionLevel2AndLevel1~
1|Plated Hole|Single Terminal Socket|B1, B11, B13|MTG270_500|PLATED_HOLE2.7_PAD5.0|3
2|Plated Hole|Single Terminal Socket|B2, B3, B4, B5, B6, B7, B8, B9, B10, B12, B14, B15|c150h50|PLATED_HOLE0.5_PAD1.5|12
3|1uF|Non-polarised capacitor|C1, C2, C5, C6, C7, C8, C10, C11, C12, C13, C14, C17, C18, C19, C20, C21, C22, C24, C25, C26, C27, C28, C29, C30, C31, C32, C34, C43, C44|CAPC2012X140N|CC0805_1UF_25V_10%_X7R|29
4|10uF|Polarised capacitor|C3, C4, C137|CAPMP3216X180N|CTE3216-18_10UF_16V_20%_AVX_TCJ, CTE3216-18_10UF_10V_10%_LESR1800|3
5|2.2uF|Non-polarised capacitor|C9_S1, C9_S2, C9_S3, C9_S4, C9_S5, C9_S6, C9_S7, C9_S8, C9_S9, C9_S10, C9_S11, C9_S12, C9_S13, C9_S14, C9_S15, C9_S16, C33_S1, C33_S2, C33_S3, C33_S4, C33_S5, C33_S6, C33_S7, C33_S8, C33_S9, C33_S10, C33_S11, C33_S12, C33_S13, C33_S14, C33_S15, C33_S16, C90|CAPC1608X87N|CC0603_2.2UF_16V_10%_X5R|33
6|100nF|Non-polarised capacitor|C15_S1, C15_S2, C15_S3, C15_S4, C15_S5, C15_S6, C15_S7, C15_S8, C15_S9, C15_S10, C15_S11, C15_S12, C15_S13, C15_S14, C15_S15, C15_S16, C16_S1, C16_S2, C16_S3, C16_S4, C16_S5, C16_S6, C16_S7, C16_S8, C16_S9, C16_S10, C16_S11, C16_S12, C16_S13, C16_S14, C16_S15, C16_S16, C35, C36, C37, C38, C39, C40, C41, C42, C45, C46, C47, C48, C49, C50, C51, C52, C60_S1, C60_S2, C60_S3, C60_S4, C60_S5, C60_S6, C60_S7, C60_S8, C60_S9, C60_S10, C60_S11, C60_S12, C60_S13, C60_S14, C60_S15, C60_S16, C88|CAPC1608X90N|CC0603_100NF_100V_10%_X7R|65
7|10nF|Non-polarised capacitor|C23_S1, C23_S2, C23_S3, C23_S4, C23_S5, C23_S6, C23_S7, C23_S8, C23_S9, C23_S10, C23_S11, C23_S12, C23_S13, C23_S14, C23_S15, C23_S16, C92, C145|CAPC1608X87N|CC0603_10NF_50V_5%_C0G|18
8|1uF|Non-polarised capacitor|C53, C61, C62, C64, C65, C93, C94, C95, C96, C97, C98, C99, C100, C101, C102, C103, C104, C105, C106, C107, C108, C109, C110, C111, C112, C119, C121, C122, C123, C131, C132, C133, C134, C136, C144|CAPC1005X55N|CC0402_1UF_16V_10%_X5R|35
9|100nF|Non-polarised capacitor|C54, C57, C58, C70, C71, C76, C77, C78, C79, C138, C140, C141, C142, C143|CAPC1005X55N|CC0402_100NF_16V_10%_X5R|14
10|10uF|Non-polarised capacitor|C55, C86|CAPC1608X80N|CC0603_10UF_10V_10%_X5R|2
11|3.9nF|Non-polarised capacitor|C56_S1, C56_S2, C56_S3, C56_S4, C56_S5, C56_S6, C56_S7, C56_S8, C56_S9, C56_S10, C56_S11, C56_S12, C56_S13, C56_S14, C56_S15, C56_S16, C91, C120_S1, C120_S2, C120_S3, C120_S4, C120_S5, C120_S6, C120_S7, C120_S8, C120_S9, C120_S10, C120_S11, C120_S12, C120_S13, C120_S14, C120_S15, C120_S16|CAPC1608X87N|CC0603_3.9NF_50V_5%_X7R|33
12|1nF|Non-polarised capacitor|C59, C63|CAPC3216X180N|CC1206_1NF_2KV_10%_X7R|2
13|100nF|Polarised capacitor|C66, C67|CAPMP3216X180N|CTE3216-18_100NF_50V_10%|2
14|10uF|Non-polarised capacitor|C68, C74|CAPC1608X87N|CC0603_10UF_6.3V_20%_X5R|2
15|100nF|Non-polarised capacitor|C69, C72, C73, C75|CAPC1608X87N|CC0603_100NF_50V_10%_X7R|4
16|22nF|Non-polarised capacitor|C80, C81|CAPC1005X55N|CC0402_22NF_16V_10%_X7R|2
17|10uF|Non-polarised capacitor|C82|CAPC3216X190N|CC1206_10UF_35V_10%_X7R_YUDEN_GMJ316BB7106KLHT|1
18|22uF|Non-polarised capacitor|C83, C113, C114, C115, C116, C117, C118|CAPC3216X180N|CC1206_22UF_35V_20%_JB_TDK_C3216JB1V226M160AC|7
19|1uF|Non-polarised capacitor|C84, C87, C89|CAPC1608X87N|CC0603_1UF_25V_10%_X7R|3
20|47uF|Non-polarised capacitor|C85|CAPC3216X180N|CC1206_47UF_25V_20%_X5R|1
21|4.7uF|Non-polarised capacitor|C124, C125, C126, C127, C128, C129, C130|CAPC1709X95N|CC0603_4.7UF_16V_10%_X5R|7
22|10nF|Non-polarised capacitor|C135|CAPC1005X55N|CC0402_10NF_25V_10%_X7R|1
23|33nF|Non-polarised capacitor|C139|CAPC1005X55N|CC0402_33NF_16V_10%_X7R|1
24|SFP+|SFP+ 1x1 Cage (20Pins)|Cage1|MOLEX_74737-0009|MOLEX_74737-0009|1
25|ESD5Z2.5T1G|Zener Diode|D1_S1, D1_S2, D1_S3, D1_S4, D1_S5, D1_S6, D1_S7, D1_S8, D1_S9, D1_S10, D1_S11, D1_S12, D1_S13, D1_S14, D1_S15, D1_S16, D2_S1, D2_S2, D2_S3, D2_S4, D2_S5, D2_S6, D2_S7, D2_S8, D2_S9, D2_S10, D2_S11, D2_S12, D2_S13, D2_S14, D2_S15, D2_S16, D9|SODFL1608X70N|ESD5Z2.5T1G|33
26|DVIULC6-4SC6|Ultralow capacitance ESD protection|D3, D11|SOT95P280X145-6N|DVIULC6-4SC6|2
27|STPS2L60A|Schottky Diode|D4_S1, D4_S2, D4_S3, D4_S4, D4_S5, D4_S6, D4_S7, D4_S8, D4_S9, D4_S10, D4_S11, D4_S12, D4_S13, D4_S14, D4_S15, D4_S16, D5_S1, D5_S2, D5_S3, D5_S4, D5_S5, D5_S6, D5_S7, D5_S8, D5_S9, D5_S10, D5_S11, D5_S12, D5_S13, D5_S14, D5_S15, D5_S16, D10|DIOM5126X265N|STPS2L60A|33
28|MBRA340T3G|Schottky Diode|D6, D7|DIOM5226X220N|MBRA340T3G|2
29|SMBJ12A|Zener Diode|D8|DIOM5336X265N|SMBJ12A|1
30|500mA-30V|Fuse|F1|FUSR_BOURNS_MF-USMF005|FUSR_BOURNS_MF-USMF050|1
31|Use only in PCB|Fiducial Target|FTG1, FTG2, FTG3, FTG4, FTG5, FTG6|FIDUCIAL_TOP_S100-200|FIDUCIAL_TARGET_S100-200|6
32|TLC5920DLG4|16x8 Bit LED Driver/Controller|IC1|SOP64P1035X279-48N|TLC5920DLG4|1
33|CLVCH16T245MDGGREP|16-Bit Dual-Supply Bus Transceiver With Configurable Voltage Translation And 3-State Outputs|IC2, IC3, IC4, IC5, IC6|SOP50P810X120-48N|CLVCH16T245MDGGREP|5
34|74HC7541D|Octal Buffer/Line Driver with 3-State Outputs|IC7, IC8|SOIC127P1032X265-20N|74HC7541D|2
35|INA219BIDCNT|Zero-Drift, Bi-Directional CURRENT/POWER MONITOR with I2C™ Interface|IC9|SOT65P280X145-8N|INA219BIDCNT|1
36|MCP9801-M/MS|2-Wire High-Accuracy Temperature Sensor|IC10|SOP65P490X110-8N|MCP9801-M/MS|1
37|Si5338A-A-GMR|I2C-Programmable Any-Frequency, Any-Output Quad Clock Generator|IC11|QFN50P400X400X90-25N-S265|Si5338A-A-GMR|1
38|74LVC1G14GW|Single Schmitt-Trigger Inverter|IC12_S1, IC12_S2, IC12_S3, IC12_S4, IC12_S5, IC12_S6, IC12_S7, IC12_S8, IC12_S9, IC12_S10, IC12_S11, IC12_S12, IC12_S13, IC12_S14, IC12_S15, IC12_S16, IC13_S1, IC13_S2, IC13_S3, IC13_S4, IC13_S5, IC13_S6, IC13_S7, IC13_S8, IC13_S9, IC13_S10, IC13_S11, IC13_S12, IC13_S13, IC13_S14, IC13_S15, IC13_S16, IC16|SOT65P212X110-5N|74LVC1G14GW|33
39|LMZ12003TZE-ADJ/NOPB|3A SIMPLE SWITCHER® Power Module with 20V Maximum Input Voltage|IC14|TEXAS_TO-PMOD (NDW)|LMZ12003TZE-ADJ/NOPB|1
40|LTC4365ITS8#PBF|Overvoltage, Undervoltage ans Reverse Supply Protection Controller|IC15|SOT65P280X100-8N|LTC4365ITS8#PBF|1
41|FT232BL|USB To Serial UART Device|IC17|QFP80P900X900X160-32AN|FT232BL|1
42|MAX13430EETB+|500Kbps Half Duplex RS-485 Transceivers with Low-Voltage Logic Interface|IC18|SON50P300X300X80-11N-R160X240|MAX13430EETB+|1
43|93LC56B-I/OT|2K Microwire Compatible Serial EEPROM|IC19|SOT95P270x145-6N|93LC56B-I/OT|1
44|PCA9306DQER|Dual Bidirectional I2C Bus And SMBus Voltage-Level Translator|IC20|SON35P100X140X40-8N|PCA9306DQER|1
45|Header 10|Connector 10 Male|J1|SAMTEC_FSH-105-04-L-DH|SAMTEC_FSH-105-04-L-DH|1
46|DNI|Connector 14 Male|J2|3M_N2514-6002RB|3M_N2514-6002RB|1
47|RJ45|1 Port, Yellow/Green LEDs, RJ45, Inverted Modular Jack Assembly, 8 Positions, Shielded, SMT|J3|TYCO_6339191-1|TYCO_6339191-1|1
48|SFP+|20 Position SFP  Connector (Small Form-factor Pluggable)|J4|MOLEX_74441-0001|MOLEX_74441-0001|1
49|Family|Terminal Block, 2 Positions, Screw Connection|J5|PHOENIX_1985807|PHOENIX_1985807|1
50|Micro-USB2 B|5 Pin + 1 Shield USB Receptacle|J6|AMPHENOL_10118193-0001LF|AMPHENOL_10118193-0001LF|1
51|Header 168|Connector 168 Male|J7, J8|HIROSE_FX10A-168P-SV|HIROSE_FX10A-168P-SV(71)|2
52|HAR-BUS 64|Connector 160zabcd Male (5x32)|J?|HARTING_02 01 160 2101|HARTING_02 01 160 2101|6
53|120R@100MHz||L1, L2, L5, L6, L7, L8, L9|INDC1608X65N|IND0603_MURATA_BLM18KG121TN1, IND0603_MURATA_BLM18KG121TZ1|7
54|1uH|Inductor|L3, L4|INDC2012X110N|IND0805_1UH_20%_WURTH_74479775210|2
55|Red/Green|Red/ Green Bi color LED|LD1, LD2, LD3, LD4, LD5, LD6, LD7, LD8, LD9, LD10, LD11, LD12, LD13, LD14, LD15, LD16, LD17, LD18, LD19, LD20, LD21, LD22, LD23, LD24, LD25, LD26, LD27, LD28, LD29, LD30, LD31, LD32, LD36, LD37, LD38, LD39, LD40, LD41, LD42, LD43, LD44, LD45, LD46, LD47, LD48, LD49, LD50, LD51, LD52, LD53, LD54, LD55, LD56, LD57, LD58, LD59, LD60, LD61, LD62, LD63, LD64, LD65, LD66, LD67|LED_DIALIGHT_597-7701-507F_a|LED_DIALIGHT_597-7701-507F_a|64
56|Red|LED Red 1C 2A|LD33|LED_AVAGO_HSMC-C150|LED_AVAGO_HSMC-C150|1
57|Green|LED Green 1C 2A|LD34, LD35, LD68, LD69, LD70, LD75, LD76, LD77, LD78, LD83, LD84|LEDM3528X210N_EMERALD-GREEN|LED_AVAGO_HSMG-A100-L02J1|11
58|Yellow|LED Yellow 1C 2A|LD71, LD72, LD73, LD74|LED_AVAGO_HSMY-C150|LED_AVAGO_HSMY-C150|4
59|Red|LED Red 1C 2A|LD79|LEDM3528X210N_RED|LED_AVAGO_HSMZ-A100-T70J1|1
60|Blue|LED Blue 1C 2A|LD80|LED_CREE_CLM1B-BKW|LED_CREE_CLM1B-BKW-CTBVA353|1
61|Green|LED Green 1C 2A|LD81, LD82|LED_AVAGO_HSMG-C150|LED_AVAGO_HSMG-C150|2
62|+ Light Pipe|LED Light Pipe x20 Type1|LP1, LP2|LEDLP_MENTOR_1279.1008|LEDLP_MENTOR_1279.1008|2
63|25MHz|Crystal 4 pins 1=XTAL Control 2=GND3=XTAL 4=GND|Q1|XTAL_EPSON_TSX-3225|XTAL_25MHZ_EPSON_TSX-3225 25.0000MF10Z-AC|1
64|560|Resistor - 1%|R1|RESC1608X55N|R0603_560R_1%_0.1W_100PPM|1
65|DNI|Resistor|R2|RESC1608X55N|R0603_0R_JUMPER|1
66|620|Resistor - 1%|R3_S1, R3_S2, R3_S3, R3_S4, R3_S5, R3_S6, R3_S7, R3_S8, R3_S9, R3_S10, R3_S11, R3_S12, R3_S13, R3_S14, R3_S15, R3_S16, R6_S1, R6_S2, R6_S3, R6_S4, R6_S5, R6_S6, R6_S7, R6_S8, R6_S9, R6_S10, R6_S11, R6_S12, R6_S13, R6_S14, R6_S15, R6_S16, R106|RESC3216X65N|R1206_620R_1%_0.25W_100PPM|33
67|220|Resistor - 1%|R4_S1, R4_S2, R4_S3, R4_S4, R4_S5, R4_S6, R4_S7, R4_S8, R4_S9, R4_S10, R4_S11, R4_S12, R4_S13, R4_S14, R4_S15, R4_S16, R5_S1, R5_S2, R5_S3, R5_S4, R5_S5, R5_S6, R5_S7, R5_S8, R5_S9, R5_S10, R5_S11, R5_S12, R5_S13, R5_S14, R5_S15, R5_S16, R7_S1, R7_S2, R7_S3, R7_S4, R7_S5, R7_S6, R7_S7, R7_S8, R7_S9, R7_S10, R7_S11, R7_S12, R7_S13, R7_S14, R7_S15, R7_S16, R8_S1, R8_S2, R8_S3, R8_S4, R8_S5, R8_S6, R8_S7, R8_S8, R8_S9, R8_S10, R8_S11, R8_S12, R8_S13, R8_S14, R8_S15, R8_S16, R107, R109, R124, R125|RESC1608X55N|R0603_220R_1%_0.1W_100PPM|68
68|4k7|Resistor - 1%|R9, R10, R11, R12, R13, R14, R15, R16, R17, R19, R20, R21, R22, R23, R24, R25, R122|RESC1608X55N|R0603_4K7_1%_0.1W_100PPM|17
69|2R2|Resistor - 1%|R18_S1, R18_S2, R18_S3, R18_S4, R18_S5, R18_S6, R18_S7, R18_S8, R18_S9, R18_S10, R18_S11, R18_S12, R18_S13, R18_S14, R18_S15, R18_S16|RESC1608X55N|R0603_2R2_1%_0.1W_200PPM|16
70|100|Resistor - 1%|R26, R27, R28, R29, R30, R31, R32, R33, R34, R35, R37, R38, R40, R41, R42, R43, R44, R45, R46, R47|RESC1608X55N|R0603_100R_1%_0.1W_100PPM|20
71|1k8|Resistor - 1%|R36|RESC1608X55N|R0603_1K8_1%_0.1W_100PPM|1
72|100k|Resistor - 1%|R39_S1, R39_S2, R39_S3, R39_S4, R39_S5, R39_S6, R39_S7, R39_S8, R39_S9, R39_S10, R39_S11, R39_S12, R39_S13, R39_S14, R39_S15, R39_S16, R93, R108, R165_S1, R165_S2, R165_S3, R165_S4, R165_S5, R165_S6, R165_S7, R165_S8, R165_S9, R165_S10, R165_S11, R165_S12, R165_S13, R165_S14, R165_S15, R165_S16|RESC1608X55N|R0603_100K_1%_0.1W_100PPM|34
73|0R1|Resistor - 1%|R48|RESC3216X65N|R1206_0R1_1%_0.25W_100PPM_YAGEO_PT|1
74|3k3|Resistor - 1%|R49, R50|RESC1608X55N|R0603_3K3_1%_0.1W_100PPM|2
75|10k|Resistor - 1%|R51, R52, R53, R118, R119, R126, R127, R129, R130, R131|RESC1005X40N|R0402_10K_1%_0.0625W_100PPM|10
76|200|Resistor - 1%|R54|RESC1608X55N|R0603_200R_1%_0.1W_100PPM|1
77|100|Resistor - 1%|R55, R56, R57, R58, R59, R60, R61, R62, R67, R68, R69, R70, R133|RESC1005X40N|R0402_100R_1%_0.0625W_100PPM|13
78|300|Resistor - 1%|R63, R64, R65, R66, R116|RESC1608X55N|R0603_300R_1%_0.1W_100PPM|5
79|10k|Resistor - 0.1%|R71, R72, R77, R78|RESC1005X35N|R0402_10K_0.1%_0.063W_25PPM|4
80|75|Resistor - 1%|R73, R75, R79, R80|RESC1608X55N|R0603_75R_1%_0.1W_100PPM|4
81|150|Resistor - 1%|R74, R76|RESC1608X55N|R0603_150R_1%_0.1W_100PPM|2
82|1k|Resistor - 0.1%|R81, R82, R83|RESC1608X64N|R0603_10K_0.1%_0.1W_25PPM|3
83|47k|Resistor - 0.1%|R84, R85, R86|RESC1608X64N|R0603_10K_0.1%_0.1W_25PPM|3
84|100|Resistor - 0.1%|R87, R88, R89, R90|RESC1005X35N|R0402_100R_0.1%_0.063W_25PPM|4
85|4k3|Resistor - 1%|R91|RESC1005X40N|R0402_4K3_1%_0.0625W_100PPM|1
86|16k|Resistor - 0.1%|R92|RESC1608X64N|R0603_16K_0.1%_0.1W_25PPM|1
87|10k|Resistor - 0.1%|R94, R96|RESC1608X55N|R0603_10K_0.1%_0.063W_10PPM|2
88|1k|Resistor - 1%|R95, R99, R117|RESC1608X55N|R0603_1K_1%_0.1W_100PPM|3
89|47k|Resistor - 1%|R97, R104|RESC1608X55N|R0603_47K_1%_0.1W_100PPM|2
90|1k87|Resistor - 0.1%|R98|RESC1608X55N|R0603_1K87_0.1%_0.063W_10PPM|1
91|22k|Resistor - 1%|R100|RESC1608X55N|R0603_22K_1%_0.1W_100PPM|1
92|510k|Resistor - 1%|R101|RESC1005X40N|R0402_510K_1%_0.0625W_100PPM|1
93|330k|Resistor - 1%|R102|RESC1005X40N|R0402_330K_1%_0.0625W_100PPM|1
94|15k|Resistor - 1%|R103, R105|RESC1005X40N|R0402_15K_1%_0.0625W_100PPM|2
95|0|Resistor|R110, R134, R136, R137, R138|RESC1608X55N|R0603_0R_JUMPER|5
96|0|Resistor|R111, R112, R113, R114, R115|RESC6331X70N|R2512_0R_JUMPER|5
97|27|Resistor - 1%|R120, R121|RESC1608X55N|R0603_27R_1%_0.1W_100PPM|2
98|1k5|Resistor - 1%|R123|RESC1608X55N|R0603_1K5_1%_0.1W_100PPM|1
99|470|Resistor - 1%|R128|RESC1608X55N|R0603_470R_1%_0.1W_100PPM|1
100|2k2|Resistor - 1%|R132|RESC1608X55N|R0603_2K2_1%_0.1W_100PPM|1
101|200k|Resistor - 1%|R135|RESC1005X40N|R0402_200K_1%_0.0625W_100PPM|1
102|10|DIL8 Resistor Network 4 Isolated Resistor 5%|RN1, RN2, RN3, RN4, RN5, RN6, RN7, RN8|RN_YAGEO_YC124|RN_10R_YAGEO_YC124-JR-0710RL|8
103|10k|DIL8 Resistor Network 4 Isolated Resistor 1%|RN9, RN14|RN_BOURNS_CAY16-F4-J4|RN_10K_BOURNS_CAY16-1002F4LF|2
104|100k|DIL8 Resistor Network 4 Isolated Resistor 5%|RN10, RN11, RN12, RN13|RN_PANASONIC_EXB38V|RN_100K_PANASONIC_EXB38V104JV|4
105|BSS123|N-CHANNEL MOSFET WITH DIODE|T1, T2, T3, T4, T5|SOT95P240X130-3N|BSS123|5
106|SI7234DP-T1-GE3|12V 60A Dual N-Channel MOSFET|T6|VISHAY_POWERPAK-SO-8-DUAL|SI7234DP-T1-GE3|1
107|2N7002CK|60V, 300mA N-Channel Trench MOSFET|T7, T8, T10|SOT95P230X110-3N|2N7002CK|3
108|DMP2066LSN-7|P-CHANNEL MOSFET WITH DIODE|T9, T11|SOT95P285X140-3N|DMP2066LSN-7|2
109|Test Point|Test Point|TP1, TP2, TP3, TP4, TP5, TP6, TP7, TP8, TP9, TP10, TP11, TP12, TP13, TP14, TP15, TP16, TP17, TP18, TP19|TPS127|SMD_PAD_1.27X1.27MM|19
110|10/100 Base-Tx|10/100 Base-Tx  LAN Transformer|TR1, TR2|XFMR_WURTH_749014012|XFMR_WURTH_749014012|2
111|1:1|Pulse Transformer for Firing Thyristors and Triacs|TR3|XFMR_SIRIO_TI 112|XFMR_SIRIO_TI 112130|1
